S.No.,Name,Class,Memory,Visual Processing,Focus and Attention,Problem Solving, Linguistics,BSPI
1,ABANA KUMAR V,III-A,20,0,43,0,0,12.6
2,ABIRAMI  S,III-A,26,0,2,16,0,8.8
3,AGESTIYA  R,III-A,,,,,,0
4,AKALYA  K,III-A,24,,,,,4.8
5,AKHILESH  G,III-A,42,0,38,30,2,22.4
6,ANGEL LEEMA ROY,III-A,28,0,9,9,6,10.4
7,AVANEESH  B,III-A,10,0,20,0,0,6
8,AVINESH  S,III-A,20,0,57,0,2,15.8
9,BENEDICT  H,III-A,5,0,30,0,2,7.4
10,BRAHADIS  D,III-A,2,0,26,0,0,5.6
11,DEEPAK  SAHANI B,III-A,,,,,,0
12,DEVACHARAN CHARAN V,III-A,40,0,59,0,0,19.8
13,DHAARSHAN  SK,III-A,,,,,,0
14,DHARANI  N,III-A,29,0,35,0,0,12.8
15,DHINESH  KARTHI S,III-A,,,,,,0
16,EBANESH VARAN R,III-A,,,,,,0
17,FRANKLIN  T,III-A,,,50,10,,12
18,GOWTHAM  V,III-A,,,,,,0
19,HARIHARAN  R,III-A,,,,96,,19.2
20,KALANITHI  S,III-A,,,,,,0
21,KARTHIKHA SUDARSANAA GL,III-A,,,,,,0
22,KOLANGIVELAN VELAN T,III-A,,,,,,0
23,KOSIGAN  M,III-A,31,0,12,0,2,9
24,KOWSHALYAA  S,III-A,13,0,0,0,0,2.6
25,MAADESHWARAN  S,III-A,,,,,,0
26,MANAV  T,III-A,,,,,,0
27,MEENU SRI V,III-A,19,0,33,0,4,11.2
28,MITRA  S,III-A,19,0,5,0,6,6
29,MOHAMMED  MALIK FAHAD N,III-A,,,,,,0
30,MOHANA  KAMALESHWARAN B,III-A,29,0,11,0,0,8
31,MOHIT  ESHWAR RN,III-A,,,,,,0
32,MUGESH  G,III-A,,,,,,0
33,NIRMAL  P,III-A,,,,,,0
34,NITHISH  KUMAR M,III-A,,,,,,0
35,OVIYA  D,III-A,20,0,32,0,4,11.2
36,PRIYA  DHARSHINI K,III-A,9,0,30,0,8,9.4
37,RAGAVAN  M,III-A,,,,,,0
38,RITHISH  D,III-A,,,,,,0
39,SASIDHARAN  C,III-A,,,,,,0
40,SHAYAAN  J,III-A,,,,,,0
41,SHIVANI  K,III-A,48,0,43,0,4,19
42,SIDDARTH  B,III-A,,,,,,0
43,SNEGA  SUPRIYA MK,III-A,30,0,49,0,4,16.6
44,SOWNDARYA  BJ,III-A,15,0,31,20,0,13.2
45,SRIMATHI VATHANI S,III-A,,,,,,0
46,SUDHIR  SINGH S,III-A,,,,,,0
47,SUJITHIRAN  M,III-A,,,,,,0
48,THIRUMALAI  SV,III-A,,,,,,0
49,VARSHAN  RAKEAL N,III-A,,,,,,0
50,VISHANTH  S,III-A,,,,,,0
51,YASWANTH  RAAM SIVA,III-A,,,,,,0
